11,1
10,641
10,075
8,383
9,339
9,899
10,548
16,209s
10,085
10,492
9,777
9,714
9,84
8,658
7,68
11,472
8,234
10,833
9,508
9,446
9,635
8,717
9,246
8,865
9,758
9,977
10,208
10,073
9,535
7,653
8,902
8,655
8,981
10,339
8,445
10,05
9,488
9,983
10,97
9,409
11,01
10,89
9,546
9,659
11,344
9,621
7,989
10,218
9,244m
10,403
10,273
9,106
16,163
9,921
9,57
10,822
10,719
10,42
10,84
9,822
10,3
8,1
7,69
10,107
10,18
9,805
9,2
9,737
10,26
10,074
12,789
9,093
10,047
9,917
9,104
10,636
10,902
9,625
9,028
9,423
10,482
9,077
9,366
9,874
10,635
9,386
9,747
11,165
8,878
8,684
8,835
11,724
8,978
6,944
11,379
10,863
10,256
9,656
10,205
9,993